Final Project Visualizations 1
…
#ST Love this plot!!

d1 <- d1 %>%
  mutate(school_type_n = recode(school_type_n, "Middle School" = "Middle",
                                               "High School" = "High"),
         region_class_n = factor(region_class_n, 
                                 levels = c("Urban", "Rural", "Frontier"))) #ST combined into 1 mutate function
d1

## # A tibble: 402 x 49
##    county total_enrollment enrollment_k_3 enrollment_4_5 enrollment_6_8
##    <chr>             <dbl>          <dbl> <chr>          <chr>         
##  1 washi~               NA             NA ""             ""            
##  2 linn                 NA             NA ""             ""            
##  3 clack~              230            150 80             --            
##  4 colum~               24             13 11             --            
##  5 coos                587            587 --             --            
##  6 coos                386            386 --             --            
##  7 coos                263            198 65             --            
##  8 crook               620            402 218            --            
##  9 desch~              381            227 154            --            
## 10 dougl~              194            155 39             --            
## # ... with 392 more rows, and 44 more variables:
## #   regular_attendance_pct <chr>, mobile_students_pct <dbl>,
## #   n_self_contained <chr>, ELA_class_size <dbl>, math_class_size <dbl>,
## #   ever_ELL_pct <chr>, economic_disadvntg_pct <chr>,
## #   disability_pct <dbl>, asian_pct <chr>, black_pct <chr>,
## #   hisp_pct <dbl>, native_am_pct <chr>, multi_racial_pct <dbl>,
## #   pac_islander_pct <chr>, white_pct <dbl>, languages_spoken_pct <dbl>,
## #   vaccinations_pct <dbl>, ela_pct_met <dbl>, on_track_fresh_17 <chr>,
## #   four_year_grade_rate_16 <dbl>, drop_out_16 <dbl>,
…
